project1/src/Sim.vcd
$date
	Sun Dec 10 18:27:58 2017
$end
$version
	Icarus Verilog
$end
$timescale
	1s
$end
$scope module TestBench $end
$var reg 1 ! Clk $end
$var reg 1 " Reset $end
$var reg 1 # Start $end
$var integer 32 $ counter [31:0] $end
$var integer 32 % flush [31:0] $end
$var integer 32 & i [31:0] $end
$var integer 32 ' outfile [31:0] $end
$var integer 32 ( stall [31:0] $end
$scope module CPU $end
$var wire 32 ) ALU_in1 [31:0] $end
$var wire 32 * EX_wd [31:0] $end
$var wire 32 + always_zero [31:0] $end
$var wire 1 ! clk_i $end
$var wire 1 , flush $end
$var wire 1 " rst_i $end
$var wire 1 # start_i $end
$var wire 1 - zero $end
$var wire 32 . post_fb [31:0] $end
$var wire 32 / post_fa [31:0] $end
$var wire 32 0 now_pc [31:0] $end
$var wire 32 1 next_pc [31:0] $end
$var wire 1 2 hazard $end
$var wire 2 3 forwardB [1:0] $end
$var wire 2 4 forwardA [1:0] $end
$var wire 32 5 ctrl_or_nop [31:0] $end
$var wire 1 6 ctrl_RegWrite $end
$var wire 1 7 ctrl_RegDst $end
$var wire 1 8 ctrl_MemtoReg $end
$var wire 1 9 ctrl_MemWrite $end
$var wire 1 : ctrl_MemRead $end
$var wire 1 ; ctrl_Jump $end
$var wire 1 < ctrl_Branch $end
$var wire 1 = ctrl_ALUSrc $end
$var wire 2 > ctrl_ALUOp [1:0] $end
$var wire 32 ? WB_wdata [31:0] $end
$var wire 2 @ WB_wb [1:0] $end
$var wire 32 A WB_res [31:0] $end
$var wire 32 B WB_data [31:0] $end
$var wire 5 C WB_RegDst [4:0] $end
$var wire 32 D MEM_wd [31:0] $end
$var wire 2 E MEM_wb [1:0] $end
$var wire 32 F MEM_res [31:0] $end
$var wire 2 G MEM_m [1:0] $end
$var wire 32 H MEM_data [31:0] $end
$var wire 5 I MEM_RegDst [4:0] $end
$var wire 32 J Jump_or_next [31:0] $end
$var wire 32 K IF_inst [31:0] $end
$var wire 32 L ID_rd2 [31:0] $end
$var wire 32 M ID_rd1 [31:0] $end
$var wire 32 N ID_pc [31:0] $end
$var wire 32 O ID_inst [31:0] $end
$var wire 32 P ID_ext [31:0] $end
$var wire 1 Q ID_Eq $end
$var wire 2 R EX_wb [1:0] $end
$var wire 32 S EX_rd2 [31:0] $end
$var wire 32 T EX_rd1 [31:0] $end
$var wire 2 U EX_m [1:0] $end
$var wire 15 V EX_inst [14:0] $end
$var wire 32 W EX_ext [31:0] $end
$var wire 4 X EX_ex [3:0] $end
$var wire 5 Y EX_RegDst [4:0] $end
$var wire 32 Z Branch_or_next [31:0] $end
$var wire 32 [ Branch_addr [31:0] $end
$var wire 32 \ ALU_res [31:0] $end
$var wire 32 ] ALU_in2 [31:0] $end
$var wire 3 ^ ALU_ctrl [2:0] $end
$scope module ALU $end
$var wire 1 - Zero_o $end
$var wire 32 _ data1_i [31:0] $end
$var wire 32 ` data_o [31:0] $end
$var wire 32 a data2_i [31:0] $end
$var wire 3 b ALUCtrl_i [2:0] $end
$var reg 32 c tmp [31:0] $end
$var reg 1 d zero_tmp $end
$upscope $end
$scope module ALU_Control $end
$var wire 3 e ALUCtrl_o [2:0] $end
$var wire 2 f ALUOp_i [1:0] $end
$var wire 6 g funct_i [5:0] $end
$var reg 3 h tmp [2:0] $end
$upscope $end
$scope module Add_Branch $end
$var wire 32 i data1_i [31:0] $end
$var wire 32 j data_o [31:0] $end
$var wire 32 k data2_i [31:0] $end
$upscope $end
$scope module Add_PC $end
$var wire 32 l data2_i [31:0] $end
$var wire 32 m data_o [31:0] $end
$var wire 32 n data1_i [31:0] $end
$upscope $end
$scope module Control $end
$var wire 6 o Op_i [5:0] $end
$var wire 1 6 RegWrite_o $end
$var wire 1 7 RegDst_o $end
$var wire 1 8 MemtoReg_o $end
$var wire 1 9 MemWrite_o $end
$var wire 1 : MemRead_o $end
$var wire 1 ; Jump_o $end
$var wire 1 < Branch_o $end
$var wire 1 = ALUSrc_o $end
$var wire 2 p ALUOp_o [1:0] $end
$var reg 10 q tmp [9:0] $end
$upscope $end
$scope module EX_MEM $end
$var wire 32 r ALUresult_i [31:0] $end
$var wire 32 s WriteData_i [31:0] $end
$var wire 1 ! clk_i $end
$var wire 2 t WB_i [1:0] $end
$var wire 5 u RegDst_i [4:0] $end
$var wire 2 v M_i [1:0] $end
$var reg 32 w ALUresult_o [31:0] $end
$var reg 2 x M_o [1:0] $end
$var reg 5 y RegDst_o [4:0] $end
$var reg 2 z WB_o [1:0] $end
$var reg 32 { WriteData_o [31:0] $end
$upscope $end
$scope module Eq $end
$var wire 32 | in2 [31:0] $end
$var wire 32 } in1 [31:0] $end
$var reg 1 Q out $end
$upscope $end
$scope module Forward $end
$var wire 5 ~ EXMEM_rd_i [4:0] $end
$var wire 1 !" EXMEM_rw_i $end
$var wire 5 "" IDEX_rs_i [4:0] $end
$var wire 5 #" IDEX_rt_i [4:0] $end
$var wire 1 $" MEMWB_rw_i $end
$var wire 5 %" MEMWB_rd_i [4:0] $end
$var reg 2 &" forwardA_o [1:0] $end
$var reg 2 '" forwardB_o [1:0] $end
$upscope $end
$scope module Hazard $end
$var wire 1 (" ID_EX_MemRead_i $end
$var wire 5 )" ID_EX_RdAddr_i [4:0] $end
$var wire 32 *" IF_ID_inst_i [31:0] $end
$var reg 1 2 hazard_o $end
$upscope $end
$scope module ID_EX $end
$var wire 4 +" EX_i [3:0] $end
$var wire 2 ," M_i [1:0] $end
$var wire 2 -" WB_i [1:0] $end
$var wire 1 ! clk_i $end
$var wire 15 ." inst_i [14:0] $end
$var wire 32 /" ext_i [31:0] $end
$var wire 32 0" data2_i [31:0] $end
$var wire 32 1" data1_i [31:0] $end
$var reg 4 2" EX_o [3:0] $end
$var reg 2 3" M_o [1:0] $end
$var reg 2 4" WB_o [1:0] $end
$var reg 32 5" data1_o [31:0] $end
$var reg 32 6" data2_o [31:0] $end
$var reg 32 7" ext_o [31:0] $end
$var reg 15 8" inst_o [14:0] $end
$upscope $end
$scope module IF_ID $end
$var wire 1 ! clk_i $end
$var wire 1 , flush_i $end
$var wire 1 2 hazard_i $end
$var wire 32 9" pc_i [31:0] $end
$var wire 32 :" inst_i [31:0] $end
$var reg 32 ;" inst_o [31:0] $end
$var reg 32 <" pc_o [31:0] $end
$upscope $end
$scope module Instruction_Memory $end
$var wire 32 =" instr_o [31:0] $end
$var wire 32 >" addr_i [31:0] $end
$upscope $end
$scope module MEM_WB $end
$var wire 32 ?" ALUresult_i [31:0] $end
$var wire 5 @" RegRD_i [4:0] $end
$var wire 2 A" WB_i [1:0] $end
$var wire 1 ! clk_i $end
$var wire 32 B" ReadMem_i [31:0] $end
$var reg 32 C" ALUresult_o [31:0] $end
$var reg 32 D" ReadMem_o [31:0] $end
$var reg 5 E" RegRD_o [4:0] $end
$var reg 2 F" WB_o [1:0] $end
$upscope $end
$scope module MUX_ALUSrc $end
$var wire 32 G" data2_i [31:0] $end
$var wire 1 H" select_i $end
$var wire 32 I" data_o [31:0] $end
$var wire 32 J" data1_i [31:0] $end
$upscope $end
$scope module MUX_ForwardA $end
$var wire 32 K" data1_i [31:0] $end
$var wire 32 L" data3_i [31:0] $end
$var wire 2 M" select_i [1:0] $end
$var wire 32 N" data_o [31:0] $end
$var wire 32 O" data2_i [31:0] $end
$upscope $end
$scope module MUX_ForwardB $end
$var wire 32 P" data1_i [31:0] $end
$var wire 32 Q" data3_i [31:0] $end
$var wire 2 R" select_i [1:0] $end
$var wire 32 S" data_o [31:0] $end
$var wire 32 T" data2_i [31:0] $end
$upscope $end
$scope module MUX_MemtoReg $end
$var wire 32 U" data1_i [31:0] $end
$var wire 32 V" data2_i [31:0] $end
$var wire 1 W" select_i $end
$var wire 32 X" data_o [31:0] $end
$upscope $end
$scope module MUX_RegDst $end
$var wire 5 Y" data1_i [4:0] $end
$var wire 5 Z" data2_i [4:0] $end
$var wire 1 [" select_i $end
$var wire 5 \" data_o [4:0] $end
$upscope $end
$scope module Memory $end
$var wire 32 ]" Address_i [31:0] $end
$var wire 1 ^" MemRead_i $end
$var wire 1 _" MemWrite_i $end
$var wire 32 `" WriteData_i [31:0] $end
$var wire 1 ! clk_i $end
$var wire 32 a" ReadData_o [31:0] $end
$upscope $end
$scope module Mux_Branch $end
$var wire 32 b" data1_i [31:0] $end
$var wire 32 c" data2_i [31:0] $end
$var wire 1 d" select_i $end
$var wire 32 e" data_o [31:0] $end
$upscope $end
$scope module Mux_Hazard_Control $end
$var wire 32 f" data1_i [31:0] $end
$var wire 32 g" data2_i [31:0] $end
$var wire 1 2 select_i $end
$var wire 32 h" data_o [31:0] $end
$upscope $end
$scope module Mux_Jump $end
$var wire 32 i" data1_i [31:0] $end
$var wire 32 j" data2_i [31:0] $end
$var wire 1 ; select_i $end
$var wire 32 k" data_o [31:0] $end
$upscope $end
$scope module PC $end
$var wire 1 ! clk_i $end
$var wire 1 2 hazard_i $end
$var wire 32 l" pc_i [31:0] $end
$var wire 1 " rst_i $end
$var wire 1 # start_i $end
$var reg 32 m" pc_o [31:0] $end
$upscope $end
$scope module Registers $end
$var wire 5 n" RDaddr_i [4:0] $end
$var wire 32 o" RDdata_i [31:0] $end
$var wire 5 p" RSaddr_i [4:0] $end
$var wire 5 q" RTaddr_i [4:0] $end
$var wire 1 r" RegWrite_i $end
$var wire 1 ! clk_i $end
$var wire 32 s" RTdata_o [31:0] $end
$var wire 32 t" RSdata_o [31:0] $end
$upscope $end
$scope module Sign_Extend $end
$var wire 16 u" data_i [15:0] $end
$var wire 32 v" data_o [31:0] $end
$upscope $end
$upscope $end
$upscope $end
$enddefinitions $end
#0
$dumpvars
b0 v"
b0 u"
b0 t"
b0 s"
0r"
b0 q"
b0 p"
b0 o"
b0 n"
b0 m"
b100 l"
b100 k"
b0 j"
b100 i"
b100001 h"
b0 g"
b100001 f"
b100 e"
0d"
b0 c"
b100 b"
b101 a"
b0 `"
0_"
0^"
b0 ]"
b0 \"
0["
b0 Z"
b0 Y"
b0 X"
0W"
b0 V"
b0 U"
b0 T"
b0 S"
b0 R"
b0 Q"
b0 P"
b0 O"
b0 N"
b0 M"
b0 L"
b0 K"
b0 J"
b0 I"
0H"
b0 G"
b0 F"
b0 E"
b0 D"
b0 C"
b101 B"
b0 A"
b0 @"
b0 ?"
b0 >"
b100000000001000000000000000000 ="
b0 <"
b0 ;"
b100000000001000000000000000000 :"
b100 9"
b0 8"
b0 7"
b0 6"
b0 5"
b0 4"
b0 3"
b0 2"
b0 1"
b0 0"
b0 /"
b0 ."
b1 -"
b0 ,"
b10 +"
b0 *"
b0 )"
0("
b0 '"
b0 &"
b0 %"
0$"
b0 #"
b0 ""
0!"
b0 ~
b0 }
b0 |
b0 {
b0 z
b0 y
b0 x
b0 w
b0 v
b0 u
b0 t
b0 s
bx r
b1001000000 q
b0 p
b0 o
b0 n
b100 m
b100 l
b0 k
b0 j
b0 i
bx h
b0 g
b0 f
bx e
xd
bx c
bx b
b0 a
bx `
b0 _
bx ^
b0 ]
bx \
b0 [
b100 Z
b0 Y
b0 X
b0 W
b0 V
b0 U
b0 T
b0 S
b0 R
1Q
b0 P
b0 O
b0 N
b0 M
b0 L
b100000000001000000000000000000 K
b100 J
b0 I
b101 H
b0 G
b0 F
b0 E
b0 D
b0 C
b0 B
b0 A
b0 @
b0 ?
b0 >
0=
0<
0;
0:
09
08
17
16
b100001 5
b0 4
b0 3
02
b100 1
b0 0
b0 /
b0 .
x-
0,
b0 +
b0 *
b0 )
b0 (
b11 '
b100000 &
b0 %
b0 $
0#
0"
0!
$end
#1
b0 +"
b0 -"
b0 5
b0 h"
07
b0 f"
06
b0 q
#12
1#
1"
#25
b101 +"
b1 -"
b1010001 5
b1010001 h"
1=
16
b1010001 f"
b1 >
b1 p
b101000001 q
b1000 J
b1000 k"
b1000 l"
b10000000 ."
b100 q"
b1000 o
b100000000000000000000 j"
b100000000010000000000000000000 K
b100000000010000000000000000000 :"
b100000000010000000000000000000 ="
b1000 Z
b1000 e"
b1000 i"
b100000000001000000000000000000 O
b100000000001000000000000000000 *"
b100000000001000000000000000000 ;"
b100 [
b100 j
b100 c"
b100 N
b100 k
b100 <"
bx H
bx B"
bx a"
bx F
bx w
bx ?"
bx L"
bx Q"
bx ]"
b101 B
b101 D"
b101 V"
b1000 1
b1000 m
b1000 9"
b1000 b"
b100 0
b100 n
b100 >"
b100 m"
b1 $
1!
#50
0!
#75
1-
1d
b0 \
b0 `
b0 r
b0 c
b100 Y
b100 u
b100 \"
b10 ^
b10 b
b10 e
b10 h
b1100 J
b1100 k"
b1100 l"
bx ?
bx O"
bx T"
bx X"
bx o"
b100 #"
b100 Y"
b100 )"
b1 f
1H"
b100000000 ."
b1000 q"
b1000000000000000000000 j"
b100000000010010000000000000001 K
b100000000010010000000000000001 :"
b100000000010010000000000000001 ="
b1100 Z
b1100 e"
b1100 i"
bx A
bx C"
bx U"
bx B
bx D"
bx V"
b10000000 V
b10000000 8"
b101 X
b101 2"
b1 R
b1 t
b1 4"
b100000000010000000000000000000 O
b100000000010000000000000000000 *"
b100000000010000000000000000000 ;"
b1000 [
b1000 j
b1000 c"
b1000 N
b1000 k
b1000 <"
b1100 1
b1100 m
b1100 9"
b1100 b"
b1000 0
b1000 n
b1000 >"
b1000 m"
b10 $
1!
#100
0!
#125
b100 i
b1000 Y
b1000 u
b1000 \"
b10000 J
b10000 k"
b10000 l"
b100100000 ."
b1 P
b1 /"
b1 v"
b1 u"
b1001 q"
b1001000000000000000100 j"
b1000 #"
b1000 Y"
b1000 )"
b0 3
b0 '"
b0 R"
1!"
b100000000100010000000000000000 K
b100000000100010000000000000000 :"
b100000000100010000000000000000 ="
b10000 Z
b10000 e"
b10000 i"
b100000000010010000000000000001 O
b100000000010010000000000000001 *"
b100000000010010000000000000001 ;"
b10000 [
b10000 j
b10000 c"
b1100 N
b1100 k
b1100 <"
b100000000 V
b100000000 8"
b100 I
b100 y
b100 ~
b100 @"
b101 H
b101 B"
b101 a"
b0 F
b0 w
b0 ?"
b0 L"
b0 Q"
b0 ]"
b1 E
b1 z
b1 A"
b10000 1
b10000 m
b10000 9"
b10000 b"
b1100 0
b1100 n
b1100 >"
b1100 m"
b11 $
1!
#150
0!
#175
b1001 Y
b1001 u
b1001 \"
0-
0d
b1 \
b1 `
b1 r
b1 c
b0 i
b10100 J
b10100 k"
b10100 l"
b0 ?
b0 O"
b0 T"
b0 X"
b0 o"
1$"
1r"
b1001 #"
b1001 Y"
b1001 )"
b1 ]
b1 a
b1 I"
b1 g
b1000100000 ."
b0 P
b0 /"
b0 v"
b0 u"
b10001 q"
b10001000000000000000000 j"
b100000000100100000000000000001 K
b100000000100100000000000000001 :"
b100000000100100000000000000001 ="
b10100 Z
b10100 e"
b10100 i"
b100 C
b100 %"
b100 E"
b100 n"
b0 A
b0 C"
b0 U"
b101 B
b101 D"
b101 V"
b1 @
b1 F"
b1000 I
b1000 y
b1000 ~
b1000 @"
b100100000 V
b100100000 8"
b1 W
b1 7"
b1 G"
b100000000100010000000000000000 O
b100000000100010000000000000000 *"
b100000000100010000000000000000 ;"
b10000 [
b10000 j
b10000 c"
b10000 N
b10000 k
b10000 <"
b10100 1
b10100 m
b10100 9"
b10100 b"
b10000 0
b10000 n
b10000 >"
b10000 m"
b100 $
1!
#200
0!
#225
b100 i
b10001 Y
b10001 u
b10001 \"
1-
1d
b0 \
b0 `
b0 r
b0 c
b0 *
b0 s
b0 .
b0 J"
b0 S"
b11000 J
b11000 k"
b11000 l"
b1001000000 ."
b1 P
b1 /"
b1 v"
b1 u"
b10010 q"
b10010000000000000000100 j"
b10001 #"
b10001 Y"
b10001 )"
b0 ]
b0 a
b0 I"
b0 g
b0 3
b0 '"
b0 R"
b10001100100100000000000000000000 K
b10001100100100000000000000000000 :"
b10001100100100000000000000000000 ="
b11000 Z
b11000 e"
b11000 i"
b100000000100100000000000000001 O
b100000000100100000000000000001 *"
b100000000100100000000000000001 ;"
b11000 [
b11000 j
b11000 c"
b10100 N
b10100 k
b10100 <"
b1000100000 V
b1000100000 8"
b0 W
b0 7"
b0 G"
b1001 I
b1001 y
b1001 ~
b1001 @"
b0 H
b0 B"
b0 a"
b1 F
b1 w
b1 ?"
b1 L"
b1 Q"
b1 ]"
b1000 C
b1000 %"
b1000 E"
b1000 n"
b11000 1
b11000 m
b11000 9"
b11000 b"
b10100 0
b10100 n
b10100 >"
b10100 m"
b101 $
1!
#250
0!
#275
b1 ,"
b11 -"
b1010111 5
b1010111 h"
18
b1010111 f"
1:
b10010 Y
b10010 u
b10010 \"
0-
0d
b1 \
b1 `
b1 r
b1 c
b0 i
b111010001 q
b11100 J
b11100 k"
b11100 l"
b1 ?
b1 O"
b1 T"
b1 X"
b1 o"
b10010 #"
b10010 Y"
b10010 )"
b1 ]
b1 a
b1 I"
b1 g
b1001000000000 ."
b0 P
b0 /"
b0 v"
b0 u"
b10000 q"
b100 p"
b100011 o
b10010000000000000000000000 j"
b100010000101000000000000000000 K
b100010000101000000000000000000 :"
b100010000101000000000000000000 ="
b11100 Z
b11100 e"
b11100 i"
b1001 C
b1001 %"
b1001 E"
b1001 n"
b1 A
b1 C"
b1 U"
b0 B
b0 D"
b0 V"
b10001 I
b10001 y
b10001 ~
b10001 @"
b101 H
b101 B"
b101 a"
b0 F
b0 w
b0 ?"
b0 L"
b0 Q"
b0 ]"
b1001000000 V
b1001000000 8"
b1 W
b1 7"
b1 G"
b10001100100100000000000000000000 O
b10001100100100000000000000000000 *"
b10001100100100000000000000000000 ;"
b11000 [
b11000 j
b11000 c"
b11000 N
b11000 k
b11000 <"
b11100 1
b11100 m
b11100 9"
b11100 b"
b11000 0
b11000 n
b11000 >"
b11000 m"
b110 $
1!
#300
0!
#325
b0 +"
b0 ,"
b0 -"
08
b1010001 f"
0:
b0 5
b0 h"
b101000001 q
b10000 Y
b10000 u
b10000 \"
1-
1d
b0 \
b0 `
b0 r
b0 c
b0 *
b0 s
b0 .
b0 J"
b0 S"
b100000 J
b100000 k"
b100000 l"
b100001010000000 ."
b10100 q"
b10000 p"
b1000 o
b1000010100000000000000000000 j"
12
b10000 #"
b100 ""
b10000 Y"
b10000 )"
b0 ]
b0 a
b0 I"
b0 g
1("
b0 3
b0 '"
b0 R"
b0 ?
b0 O"
b0 T"
b0 X"
b0 o"
b10000010011000000000100010 K
b10000010011000000000100010 :"
b10000010011000000000100010 ="
b100000 Z
b100000 e"
b100000 i"
b100010000101000000000000000000 O
b100010000101000000000000000000 *"
b100010000101000000000000000000 ;"
b11100 [
b11100 j
b11100 c"
b11100 N
b11100 k
b11100 <"
b1001000000000 V
b1001000000000 8"
b0 W
b0 7"
b0 G"
b1 U
b1 v
b1 3"
b11 R
b11 t
b11 4"
b10010 I
b10010 y
b10010 ~
b10010 @"
b0 H
b0 B"
b0 a"
b1 F
b1 w
b1 ?"
b1 L"
b1 Q"
b1 ]"
b10001 C
b10001 %"
b10001 E"
b10001 n"
b0 A
b0 C"
b0 U"
b101 B
b101 D"
b101 V"
b100000 1
b100000 m
b100000 9"
b100000 b"
b11100 0
b11100 n
b11100 >"
b11100 m"
b111 $
1!
#350
0!
#375
b101 +"
b1 -"
b1010001 5
b1010001 h"
b10100 Y
b10100 u
b10100 \"
02
b1 ?
b1 O"
b1 T"
b1 X"
b1 o"
b10 4
b10 &"
b10 M"
1^"
b10100 #"
b10000 ""
b10100 Y"
b10100 )"
b0 f
0H"
0("
b10010 C
b10010 %"
b10010 E"
b10010 n"
b1 A
b1 C"
b1 U"
b0 B
b0 D"
b0 V"
b10000 I
b10000 y
b10000 ~
b10000 @"
b101 H
b101 B"
b101 a"
b0 F
b0 w
b0 ?"
b0 L"
b0 Q"
b0 ]"
b1 G
b1 x
b11 E
b11 z
b11 A"
b100001010000000 V
b100001010000000 8"
b0 X
b0 2"
b0 U
b0 v
b0 3"
b0 R
b0 t
b0 4"
b1000 $
b1 (
1!
#400
0!
#425
0Q
0-
0d
b101 \
b101 `
b101 r
b101 c
b10 +"
b101 )
b101 _
b101 /
b101 N"
b100001 5
b100001 h"
b101 M
b101 }
b101 1"
b101 t"
17
0=
b100001 f"
b0 >
b0 p
b11111111111111100000000010001000 i
b1 L
b1 |
b1 0"
b1 s"
b1001000000 q
b100100 J
b100100 k"
b100100 l"
b100000100110000 ."
b11111111111111111000000000100010 P
b11111111111111111000000000100010 /"
b11111111111111111000000000100010 v"
b1000000000100010 u"
b1001 q"
b0 o
b1000001001100000000010001000 j"
b1 f
1H"
0^"
0!"
b0 3
b0 '"
b0 R"
b1 4
b1 &"
b1 M"
b101 ?
b101 O"
b101 T"
b101 X"
b101 o"
1W"
b10001100101000100000100000 K
b10001100101000100000100000 :"
b10001100101000100000100000 ="
b100100 Z
b100100 e"
b100100 i"
b10000010011000000000100010 O
b10000010011000000000100010 *"
b10000010011000000000100010 ;"
b11111111111111100000000010101000 [
b11111111111111100000000010101000 j
b11111111111111100000000010101000 c"
b100000 N
b100000 k
b100000 <"
b101 X
b101 2"
b1 R
b1 t
b1 4"
b10100 I
b10100 y
b10100 ~
b10100 @"
b0 G
b0 x
b0 E
b0 z
b0 A"
b10000 C
b10000 %"
b10000 E"
b10000 n"
b0 A
b0 C"
b0 U"
b101 B
b101 D"
b101 V"
b11 @
b11 F"
b100100 1
b100100 m
b100100 9"
b100100 b"
b100000 0
b100000 n
b100000 >"
b100000 m"
b1001 $
1!
#450
0!
#475
b0 ?
b0 O"
b0 T"
b0 X"
b0 o"
b0 M
b0 }
b0 1"
b0 t"
b10000 Y
b10000 u
b10000 \"
b100 \
b100 `
b100 r
b100 c
b11 ^
b11 b
b11 e
b11 h
b11111111111111100010000010000000 i
b101000 J
b101000 k"
b101000 l"
b0 4
b0 &"
b0 M"
0$"
0W"
0r"
1!"
b1001 #"
b10000 Z"
b1001 Y"
b1001 )"
b1 ]
b1 a
b1 I"
b100010 g
b1 *
b1 s
b1 .
b1 J"
b1 S"
b0 f
0H"
1["
b100011001010001 ."
b11111111111111111000100000100000 P
b11111111111111111000100000100000 /"
b11111111111111111000100000100000 v"
b1000100000100000 u"
b10010 q"
b10001 p"
b1000110010100010000010000000 j"
b100010010100110000000000000000 K
b100010010100110000000000000000 :"
b100010010100110000000000000000 ="
b101000 Z
b101000 e"
b101000 i"
b10100 C
b10100 %"
b10100 E"
b10100 n"
b0 @
b0 F"
b0 H
b0 B"
b0 a"
b101 F
b101 w
b101 ?"
b101 L"
b101 Q"
b101 ]"
b1 E
b1 z
b1 A"
b100000100110000 V
b100000100110000 8"
b11111111111111111000000000100010 W
b11111111111111111000000000100010 7"
b11111111111111111000000000100010 G"
b1 S
b1 6"
b1 P"
b101 T
b101 5"
b101 K"
b10 X
b10 2"
b10001100101000100000100000 O
b10001100101000100000100000 *"
b10001100101000100000100000 ;"
b11111111111111100010000010100100 [
b11111111111111100010000010100100 j
b11111111111111100010000010100100 c"
b100100 N
b100100 k
b100100 <"
b101000 1
b101000 m
b101000 9"
b101000 b"
b100100 0
b100100 n
b100100 >"
b100100 m"
b1010 $
1!
#500
0!
#525
b101 +"
b1010001 5
b1010001 h"
07
1=
b1010001 f"
b1 >
b1 p
b0 i
b0 L
b0 |
b0 0"
b0 s"
b1 M
b1 }
b1 1"
b1 t"
b101000001 q
b10001 Y
b10001 u
b10001 \"
b10 ^
b10 b
b10 e
b10 h
b1 \
b1 `
b1 r
b1 c
b101100 J
b101100 k"
b101100 l"
b100101001100000 ."
b0 P
b0 /"
b0 v"
b0 u"
b10011 q"
b10010 p"
b1000 o
b1001010011000000000000000000 j"
b10010 #"
b10001 ""
b10001 Z"
b10010 Y"
b10010 )"
b100000 g
b0 )
b0 _
b0 /
b0 N"
b0 4
b0 &"
b0 M"
b101 ?
b101 O"
b101 T"
b101 X"
b101 o"
1$"
1r"
b100010001100100000000000000000 K
b100010001100100000000000000000 :"
b100010001100100000000000000000 ="
b101100 Z
b101100 e"
b101100 i"
b100010010100110000000000000000 O
b100010010100110000000000000000 *"
b100010010100110000000000000000 ;"
b101000 [
b101000 j
b101000 c"
b101000 N
b101000 k
b101000 <"
b100011001010001 V
b100011001010001 8"
b11111111111111111000100000100000 W
b11111111111111111000100000100000 7"
b11111111111111111000100000100000 G"
b0 T
b0 5"
b0 K"
b10000 I
b10000 y
b10000 ~
b10000 @"
b1 D
b1 {
b1 `"
b100 F
b100 w
b100 ?"
b100 L"
b100 Q"
b100 ]"
b101 A
b101 C"
b101 U"
b0 B
b0 D"
b0 V"
b1 @
b1 F"
b101100 1
b101100 m
b101100 9"
b101100 b"
b101000 0
b101000 n
b101000 >"
b101000 m"
b1011 $
1!
#550
0!
#575
b10011 Y
b10011 u
b10011 \"
b0 ]
b0 a
b0 I"
b1 \
b1 `
b1 r
b1 c
b1 L
b1 |
b1 0"
b1 s"
b0 M
b0 }
b0 1"
b0 t"
b110000 J
b110000 k"
b110000 l"
b100 ?
b100 O"
b100 T"
b100 X"
b100 o"
b10011 #"
b10010 ""
b0 Z"
b10011 Y"
b10011 )"
b0 g
b0 *
b0 s
b0 .
b0 J"
b0 S"
b1 )
b1 _
b1 /
b1 N"
b1 f
1H"
0["
b100011001000000 ."
b10010 q"
b10001 p"
b1000110010000000000000000000 j"
b100010011100010000000000000000 K
b100010011100010000000000000000 :"
b100010011100010000000000000000 ="
b110000 Z
b110000 e"
b110000 i"
b10000 C
b10000 %"
b10000 E"
b10000 n"
b100 A
b100 C"
b100 U"
b10001 I
b10001 y
b10001 ~
b10001 @"
b1 F
b1 w
b1 ?"
b1 L"
b1 Q"
b1 ]"
b100101001100000 V
b100101001100000 8"
b0 W
b0 7"
b0 G"
b0 S
b0 6"
b0 P"
b1 T
b1 5"
b1 K"
b101 X
b101 2"
b100010001100100000000000000000 O
b100010001100100000000000000000 *"
b100010001100100000000000000000 ;"
b101100 [
b101100 j
b101100 c"
b101100 N
b101100 k
b101100 <"
b110000 1
b110000 m
b110000 9"
b110000 b"
b101100 0
b101100 n
b101100 >"
b101100 m"
b1100 $
1!
#600
0!
#625
b1 L
b1 |
b1 0"
b1 s"
b1 4
b1 &"
b1 M"
b10010 Y
b10010 u
b10010 \"
0-
0d
b1 \
b1 `
b1 r
b1 c
b0 M
b0 }
b0 1"
b0 t"
b110100 J
b110100 k"
b110100 l"
b100111000100000 ."
b10001 q"
b10011 p"
b1001110001000000000000000000 j"
b10010 #"
b10001 ""
b10010 Y"
b10010 )"
b1 *
b1 s
b1 .
b1 J"
b1 S"
b1 )
b1 _
b1 /
b1 N"
b0 3
b0 '"
b0 R"
b1 ?
b1 O"
b1 T"
b1 X"
b1 o"
b10010000010000000000000000001 K
b10010000010000000000000000001 :"
b10010000010000000000000000001 ="
b110100 Z
b110100 e"
b110100 i"
b100010011100010000000000000000 O
b100010011100010000000000000000 *"
b100010011100010000000000000000 ;"
b110000 [
b110000 j
b110000 c"
b110000 N
b110000 k
b110000 <"
b100011001000000 V
b100011001000000 8"
b1 S
b1 6"
b1 P"
b0 T
b0 5"
b0 K"
b10011 I
b10011 y
b10011 ~
b10011 @"
b0 D
b0 {
b0 `"
b10001 C
b10001 %"
b10001 E"
b10001 n"
b1 A
b1 C"
b1 U"
b110100 1
b110100 m
b110100 9"
b110100 b"
b110000 0
b110000 n
b110000 >"
b110000 m"
b1101 $
1!
#650
0!
#675
b10x0 +"
b0x ,"
bx0 -"
b10x00xx0 5
b10x00xx0 h"
x7
0=
x8
06
x:
1<
b10x00xx0 f"
b10 >
b10 p
b0 L
b0 |
b0 0"
b0 s"
b10001 Y
b10001 u
b10001 \"
b100 i
b100 M
b100 }
b100 1"
b100 t"
bx0x00x1010 q
b111000 J
b111000 k"
b111000 l"
b10001 #"
b10011 ""
b10001 Y"
b10001 )"
b100000100000000 ."
b1 P
b1 /"
b1 v"
b1 u"
b1000 q"
b10000 p"
b100 o
b1000001000000000000000000100 j"
b1000000000000000000000000111 K
b1000000000000000000000000111 :"
b1000000000000000000000000111 ="
b111000 Z
b111000 e"
b111000 i"
b10011 C
b10011 %"
b10011 E"
b10011 n"
b10010 I
b10010 y
b10010 ~
b10010 @"
b1 D
b1 {
b1 `"
b100111000100000 V
b100111000100000 8"
b10010000010000000000000000001 O
b10010000010000000000000000001 *"
b10010000010000000000000000001 ;"
b111000 [
b111000 j
b111000 c"
b110100 N
b110100 k
b110100 <"
b111000 1
b111000 m
b111000 9"
b111000 b"
b110100 0
b110100 n
b110100 >"
b110100 m"
b1110 $
1!
#700
0!
